Summary of IndyUseR Survey (Jan 2019)
…
# gather all questions/answers in tall format
surveydf = surveydf %>% select(-Timestamp) %>% mutate(id = seq(1, nrow(surveydf)))
# split responses where more than one response is given to a question
surveydf_g = surveydf %>% gather(question, answer, -id)
surveydf_g = surveydf_g %>% mutate(anssplit = strsplit(answer,";")) %>% unnest(anssplit)
surveydf_g = surveydf_g %>% mutate(anssplit = str_wrap(anssplit, 30))

# question list
questions = surveydf_g %>% distinct(question)
questions = questions$question

surveydf_g

## # A tibble: 236 x 4
##       id question           answer                    anssplit            
##    <int> <chr>              <chr>                     <chr>               
##  1     1 What are you look Exposure to application  "Exposure to applic
##  2     2 What are you look Exposure to application  "Exposure to applic
##  3     2 What are you look Exposure to application  Networking          
##  4     3 What are you look Build experience/experti "Build experience/e
##  5     3 What are you look Build experience/experti "Exposure to applic
##  6     3 What are you look Build experience/experti Networking          
##  7     4 What are you look Exposure to application  "Exposure to applic
##  8     5 What are you look Build experience/experti "Build experience/e
##  9     5 What are you look Build experience/experti Networking          
## 10     6 What are you look Build experience/experti "Build experience/e
## # ... with 226 more rows
…
